# vtk DataFile Version 3.0
vtk output
ASCII
DATASET POLYDATA
POINTS 121 float
-59 70 0
10 50 0
54 30 0
56 -1 0
27 -19 0
19 -22 0
35 -24 0
45 -31 0
50 -37 0
42 -23 0
106 10 0
-59 70 10
10 50 10
54 30 10
56 -1 10
27 -19 10
19 -22 10
35 -24 10
45 -31 10
50 -37 10
42 -23 10
106 10 10
-59 70 20
10 50 20
54 30 20
56 -1 20
27 -19 20
19 -22 20
35 -24 20
45 -31 20
50 -37 20
42 -23 20
106 10 20
-59 70 30
10 50 30
54 30 30
56 -1 30
27 -19 30
19 -22 30
35 -24 30
45 -31 30
50 -37 30
42 -23 30
106 10 30
-59 70 40
10 50 40
54 30 40
56 -1 40
27 -19 40
19 -22 40
35 -24 40
45 -31 40
50 -37 40
42 -23 40
106 10 40
-59 70 50
10 50 50
54 30 50
56 -1 50
27 -19 50
19 -22 50
35 -24 50
45 -31 50
50 -37 50
42 -23 50
106 10 50
-59 70 60
10 50 60
54 30 60
56 -1 60
27 -19 60
19 -22 60
35 -24 60
45 -31 60
50 -37 60
42 -23 60
106 10 60
-59 70 70
10 50 70
54 30 70
56 -1 70
27 -19 70
19 -22 70
35 -24 70
45 -31 70
50 -37 70
42 -23 70
106 10 70
-59 70 80
10 50 80
54 30 80
56 -1 80
27 -19 80
19 -22 80
35 -24 80
45 -31 80
50 -37 80
42 -23 80
106 10 80
-59 70 90
10 50 90
54 30 90
56 -1 90
27 -19 90
19 -22 90
35 -24 90
45 -31 90
50 -37 90
42 -23 90
106 10 90
-59 70 100
10 50 100
54 30 100
56 -1 100
27 -19 100
19 -22 100
35 -24 100
45 -31 100
50 -37 100
42 -23 100
106 10 100
POLYGONS 200 800
3 0 1 11
3 1 12 11
3 1 2 12
3 2 13 12
3 2 3 13
3 3 14 13
3 3 4 14
3 4 15 14
3 4 5 15
3 5 16 15
3 5 6 16
3 6 17 16
3 6 7 17
3 7 18 17
3 7 8 18
3 8 19 18
3 8 9 19
3 9 20 19
3 9 10 20
3 10 21 20
3 11 12 22
3 12 23 22
3 12 13 23
3 13 24 23
3 13 14 24
3 14 25 24
3 14 15 25
3 15 26 25
3 15 16 26
3 16 27 26
3 16 17 27
3 17 28 27
3 17 18 28
3 18 29 28
3 18 19 29
3 19 30 29
3 19 20 30
3 20 31 30
3 20 21 31
3 21 32 31
3 22 23 33
3 23 34 33
3 23 24 34
3 24 35 34
3 24 25 35
3 25 36 35
3 25 26 36
3 26 37 36
3 26 27 37
3 27 38 37
3 27 28 38
3 28 39 38
3 28 29 39
3 29 40 39
3 29 30 40
3 30 41 40
3 30 31 41
3 31 42 41
3 31 32 42
3 32 43 42
3 33 34 44
3 34 45 44
3 34 35 45
3 35 46 45
3 35 36 46
3 36 47 46
3 36 37 47
3 37 48 47
3 37 38 48
3 38 49 48
3 38 39 49
3 39 50 49
3 39 40 50
3 40 51 50
3 40 41 51
3 41 52 51
3 41 42 52
3 42 53 52
3 42 43 53
3 43 54 53
3 44 45 55
3 45 56 55
3 45 46 56
3 46 57 56
3 46 47 57
3 47 58 57
3 47 48 58
3 48 59 58
3 48 49 59
3 49 60 59
3 49 50 60
3 50 61 60
3 50 51 61
3 51 62 61
3 51 52 62
3 52 63 62
3 52 53 63
3 53 64 63
3 53 54 64
3 54 65 64
3 55 56 66
3 56 67 66
3 56 57 67
3 57 68 67
3 57 58 68
3 58 69 68
3 58 59 69
3 59 70 69
3 59 60 70
3 60 71 70
3 60 61 71
3 61 72 71
3 61 62 72
3 62 73 72
3 62 63 73
3 63 74 73
3 63 64 74
3 64 75 74
3 64 65 75
3 65 76 75
3 66 67 77
3 67 78 77
3 67 68 78
3 68 79 78
3 68 69 79
3 69 80 79
3 69 70 80
3 70 81 80
3 70 71 81
3 71 82 81
3 71 72 82
3 72 83 82
3 72 73 83
3 73 84 83
3 73 74 84
3 74 85 84
3 74 75 85
3 75 86 85
3 75 76 86
3 76 87 86
3 77 78 88
3 78 89 88
3 78 79 89
3 79 90 89
3 79 80 90
3 80 91 90
3 80 81 91
3 81 92 91
3 81 82 92
3 82 93 92
3 82 83 93
3 83 94 93
3 83 84 94
3 84 95 94
3 84 85 95
3 85 96 95
3 85 86 96
3 86 97 96
3 86 87 97
3 87 98 97
3 88 89 99
3 89 100 99
3 89 90 100
3 90 101 100
3 90 91 101
3 91 102 101
3 91 92 102
3 92 103 102
3 92 93 103
3 93 104 103
3 93 94 104
3 94 105 104
3 94 95 105
3 95 106 105
3 95 96 106
3 96 107 106
3 96 97 107
3 97 108 107
3 97 98 108
3 98 109 108
3 99 100 110
3 100 111 110
3 100 101 111
3 101 112 111
3 101 102 112
3 102 113 112
3 102 103 113
3 103 114 113
3 103 104 114
3 104 115 114
3 104 105 115
3 105 116 115
3 105 106 116
3 106 117 116
3 106 107 117
3 107 118 117
3 107 108 118
3 108 119 118
3 108 109 119
3 109 120 119
