# vtk DataFile Version 3.0
vtk output
ASCII
DATASET POLYDATA
POINTS 121 float
-53 18 0
-46 3 0
-33 -5 0
-18 -5 0
-3 1 0
14 11 0
31 21 0
50 30 0
70 34 0
91 31 0
109 20 0
-54 18 10
-47 3 10
-34 -5 10
-19 -5 10
-4 1 10
13 11 10
30 21 10
49 30 10
69 34 10
90 31 10
108 20 10
-55 18 20
-48 3 20
-35 -5 20
-20 -5 20
-5 1 20
12 11 20
29 21 20
48 30 20
68 34 20
89 31 20
107 20 20
-56 18 30
-49 3 30
-36 -5 30
-21 -5 30
-6 1 30
11 11 30
28 21 30
47 30 30
67 34 30
88 31 30
106 20 30
-57 18 40
-50 3 40
-37 -5 40
-22 -5 40
-7 1 40
10 11 40
27 21 40
46 30 40
66 34 40
87 31 40
105 20 40
-58 18 50
-51 3 50
-38 -5 50
-23 -5 50
-8 1 50
9 11 50
26 21 50
45 30 50
65 34 50
86 31 50
104 20 50
-59 18 60
-52 3 60
-39 -5 60
-24 -5 60
-9 1 60
8 11 60
25 21 60
44 30 60
64 34 60
85 31 60
103 20 60
-60 18 70
-53 3 70
-40 -5 70
-25 -5 70
-10 1 70
7 11 70
24 21 70
43 30 70
63 34 70
84 31 70
102 20 70
-61 18 80
-54 3 80
-41 -5 80
-26 -5 80
-11 1 80
6 11 80
23 21 80
42 30 80
62 34 80
83 31 80
101 20 80
-62 18 90
-55 3 90
-42 -5 90
-27 -5 90
-12 1 90
5 11 90
22 21 90
41 30 90
61 34 90
82 31 90
100 20 90
-63 18 100
-56 3 100
-43 -5 100
-28 -5 100
-13 1 100
4 11 100
21 21 100
40 30 100
60 34 100
81 31 100
99 20 100
POLYGONS 200 800
3 0 1 11
3 1 12 11
3 1 2 12
3 2 13 12
3 2 3 13
3 3 14 13
3 3 4 14
3 4 15 14
3 4 5 15
3 5 16 15
3 5 6 16
3 6 17 16
3 6 7 17
3 7 18 17
3 7 8 18
3 8 19 18
3 8 9 19
3 9 20 19
3 9 10 20
3 10 21 20
3 11 12 22
3 12 23 22
3 12 13 23
3 13 24 23
3 13 14 24
3 14 25 24
3 14 15 25
3 15 26 25
3 15 16 26
3 16 27 26
3 16 17 27
3 17 28 27
3 17 18 28
3 18 29 28
3 18 19 29
3 19 30 29
3 19 20 30
3 20 31 30
3 20 21 31
3 21 32 31
3 22 23 33
3 23 34 33
3 23 24 34
3 24 35 34
3 24 25 35
3 25 36 35
3 25 26 36
3 26 37 36
3 26 27 37
3 27 38 37
3 27 28 38
3 28 39 38
3 28 29 39
3 29 40 39
3 29 30 40
3 30 41 40
3 30 31 41
3 31 42 41
3 31 32 42
3 32 43 42
3 33 34 44
3 34 45 44
3 34 35 45
3 35 46 45
3 35 36 46
3 36 47 46
3 36 37 47
3 37 48 47
3 37 38 48
3 38 49 48
3 38 39 49
3 39 50 49
3 39 40 50
3 40 51 50
3 40 41 51
3 41 52 51
3 41 42 52
3 42 53 52
3 42 43 53
3 43 54 53
3 44 45 55
3 45 56 55
3 45 46 56
3 46 57 56
3 46 47 57
3 47 58 57
3 47 48 58
3 48 59 58
3 48 49 59
3 49 60 59
3 49 50 60
3 50 61 60
3 50 51 61
3 51 62 61
3 51 52 62
3 52 63 62
3 52 53 63
3 53 64 63
3 53 54 64
3 54 65 64
3 55 56 66
3 56 67 66
3 56 57 67
3 57 68 67
3 57 58 68
3 58 69 68
3 58 59 69
3 59 70 69
3 59 60 70
3 60 71 70
3 60 61 71
3 61 72 71
3 61 62 72
3 62 73 72
3 62 63 73
3 63 74 73
3 63 64 74
3 64 75 74
3 64 65 75
3 65 76 75
3 66 67 77
3 67 78 77
3 67 68 78
3 68 79 78
3 68 69 79
3 69 80 79
3 69 70 80
3 70 81 80
3 70 71 81
3 71 82 81
3 71 72 82
3 72 83 82
3 72 73 83
3 73 84 83
3 73 74 84
3 74 85 84
3 74 75 85
3 75 86 85
3 75 76 86
3 76 87 86
3 77 78 88
3 78 89 88
3 78 79 89
3 79 90 89
3 79 80 90
3 80 91 90
3 80 81 91
3 81 92 91
3 81 82 92
3 82 93 92
3 82 83 93
3 83 94 93
3 83 84 94
3 84 95 94
3 84 85 95
3 85 96 95
3 85 86 96
3 86 97 96
3 86 87 97
3 87 98 97
3 88 89 99
3 89 100 99
3 89 90 100
3 90 101 100
3 90 91 101
3 91 102 101
3 91 92 102
3 92 103 102
3 92 93 103
3 93 104 103
3 93 94 104
3 94 105 104
3 94 95 105
3 95 106 105
3 95 96 106
3 96 107 106
3 96 97 107
3 97 108 107
3 97 98 108
3 98 109 108
3 99 100 110
3 100 111 110
3 100 101 111
3 101 112 111
3 101 102 112
3 102 113 112
3 102 103 113
3 103 114 113
3 103 104 114
3 104 115 114
3 104 105 115
3 105 116 115
3 105 106 116
3 106 117 116
3 106 107 117
3 107 118 117
3 107 108 118
3 108 119 118
3 108 109 119
3 109 120 119
